------------------
System Information
------------------
Time of this report: 4/13/2015, 20:20:30
       Machine name: KELLY
   Operating System: Windows 8.1 Pro 64-bit (6.3, Build 9600) (9600.winblue_r8.150127-1500)
           Language: English (Regional Setting: English)
System Manufacturer: ASUS
       System Model: All Series
               BIOS: BIOS Date: 11/11/14 10:07:57 Ver: 22.01
          Processor: Intel(R) Core(TM) i7-4790K CPU @ 4.00GHz (8 CPUs), ~4.0GHz
             Memory: 8192MB RAM
Available OS Memory: 8134MB RAM
          Page File: 5039MB used, 4375MB available
        Windows Dir: C:\WINDOWS
    DirectX Version: DirectX 11
DX Setup Parameters: Not found
   User DPI Setting: 96 DPI (100 percent)
 System DPI Setting: 144 DPI (150 percent)
    DWM DPI Scaling: Disabled
     DxDiag Version: 6.03.9600.17415 64bit Unicode

------------
DxDiag Notes
------------
      Display Tab 1: No problems found.
        Sound Tab 1: No problems found.
        Sound Tab 2: No problems found.
        Sound Tab 3: No problems found.
          Input Tab: No problems found.

--------------------
DirectX Debug Levels
--------------------
Direct3D:    0/4 (retail)
DirectDraw:  0/4 (retail)
DirectInput: 0/5 (retail)
DirectMusic: 0/5 (retail)
DirectPlay:  0/9 (retail)
DirectSound: 0/5 (retail)
DirectShow:  0/6 (retail)

---------------
Display Devices
---------------
          Card name: NVIDIA GeForce GTX 780 Ti 
       Manufacturer: NVIDIA
          Chip type: GeForce GTX 780 Ti
           DAC type: Integrated RAMDAC
        Device Type: Full Device
         Device Key: Enum\PCI\VEN_10DE&DEV_100A&SUBSYS_28833842&REV_A1
     Display Memory: 7046 MB
   Dedicated Memory: 2978 MB
      Shared Memory: 4067 MB
       Current Mode: 1920 x 1080 (32 bit) (60Hz)
       Monitor Name: Generic PnP Monitor
      Monitor Model: SONY TV
         Monitor Id: SNY3002
        Native Mode: 1920 x 1080(p) (60.000Hz)
        Output Type: HDMI
        Driver Name: nvd3dumx.dll,nvwgf2umx.dll,nvwgf2umx.dll,nvd3dum,nvwgf2um,nvwgf2um
Driver File Version: 9.18.0013.4788 (English)
     Driver Version: 9.18.13.4788
        DDI Version: 11
     Feature Levels: 11.0,10.1,10.0,9.3,9.2,9.1
       Driver Model: WDDM 1.3
Graphics Preemption: DMA
 Compute Preemption: DMA
           Miracast: Not Supported
Hybrid Graphics GPU: Not Supported
     Power P-states: Not Supported
  Driver Attributes: Final Retail
   Driver Date/Size: 3/13/2015 16:41:47, 17258024 bytes
        WHQL Logo'd: Yes
    WHQL Date Stamp: 
  Device Identifier: {D7B71E3E-534A-11CF-4649-8E081CC2C435}
          Vendor ID: 0x10DE
          Device ID: 0x100A
          SubSys ID: 0x28833842
        Revision ID: 0x00A1
 Driver Strong Name: oem203.inf:0f066de3182b453d:Section037:9.18.13.4788:pci\ven_10de&dev_100a
     Rank Of Driver: 00DA2001
        Video Accel: ModeMPEG2_A ModeMPEG2_C ModeVC1_C ModeWMV9_C 
        DXVA2 Modes: DXVA2_ModeMPEG2_IDCT  DXVA2_ModeMPEG2_VLD  DXVA2_ModeVC1_VLD  DXVA2_ModeVC1_IDCT  DXVA2_ModeWMV9_IDCT  DXVA2_ModeH264_VLD_NoFGT  
   Deinterlace Caps: {6CB69578-7617-4637-91E5-1C02DB810285}: Format(In/Out)=(YUY2,YUY2) Frames(Prev/Fwd/Back)=(0,0,0) Caps=VideoProcess_YUV2RGB VideoProcess_StretchX VideoProcess_StretchY DeinterlaceTech_PixelAdaptive 
                     {F9F19DA5-3B09-4B2F-9D89-C64753E3EAAB}: Format(In/Out)=(YUY2,YUY2) Frames(Prev/Fwd/Back)=(0,0,0) Caps=VideoProcess_YUV2RGB VideoProcess_StretchX VideoProcess_StretchY 
                     {5A54A0C9-C7EC-4BD9-8EDE-F3C75DC4393B}: Format(In/Out)=(YUY2,YUY2) Frames(Prev/Fwd/Back)=(0,0,0) Caps=VideoProcess_YUV2RGB VideoProcess_StretchX VideoProcess_StretchY 
                     {335AA36E-7884-43A4-9C91-7F87FAF3E37E}: Format(In/Out)=(YUY2,YUY2) Frames(Prev/Fwd/Back)=(0,0,0) Caps=VideoProcess_YUV2RGB VideoProcess_StretchX VideoProcess_StretchY DeinterlaceTech_BOBVerticalStretch 
                     {6CB69578-7617-4637-91E5-1C02DB810285}: Format(In/Out)=(UYVY,UYVY) Frames(Prev/Fwd/Back)=(0,0,0) Caps=VideoProcess_YUV2RGB VideoProcess_StretchX VideoProcess_StretchY DeinterlaceTech_PixelAdaptive 
                     {F9F19DA5-3B09-4B2F-9D89-C64753E3EAAB}: Format(In/Out)=(UYVY,UYVY) Frames(Prev/Fwd/Back)=(0,0,0) Caps=VideoProcess_YUV2RGB VideoProcess_StretchX VideoProcess_StretchY 
                     {5A54A0C9-C7EC-4BD9-8EDE-F3C75DC4393B}: Format(In/Out)=(UYVY,UYVY) Frames(Prev/Fwd/Back)=(0,0,0) Caps=VideoProcess_YUV2RGB VideoProcess_StretchX VideoProcess_StretchY 
                     {335AA36E-7884-43A4-9C91-7F87FAF3E37E}: Format(In/Out)=(UYVY,UYVY) Frames(Prev/Fwd/Back)=(0,0,0) Caps=VideoProcess_YUV2RGB VideoProcess_StretchX VideoProcess_StretchY DeinterlaceTech_BOBVerticalStretch 
                     {6CB69578-7617-4637-91E5-1C02DB810285}: Format(In/Out)=(YV12,0x32315659) Frames(Prev/Fwd/Back)=(0,0,0) Caps=VideoProcess_YUV2RGB VideoProcess_StretchX VideoProcess_StretchY DeinterlaceTech_PixelAdaptive 
                     {F9F19DA5-3B09-4B2F-9D89-C64753E3EAAB}: Format(In/Out)=(YV12,0x32315659) Frames(Prev/Fwd/Back)=(0,0,0) Caps=VideoProcess_YUV2RGB VideoProcess_StretchX VideoProcess_StretchY 
                     {5A54A0C9-C7EC-4BD9-8EDE-F3C75DC4393B}: Format(In/Out)=(YV12,0x32315659) Frames(Prev/Fwd/Back)=(0,0,0) Caps=VideoProcess_YUV2RGB VideoProcess_StretchX VideoProcess_StretchY 
                     {335AA36E-7884-43A4-9C91-7F87FAF3E37E}: Format(In/Out)=(YV12,0x32315659) Frames(Prev/Fwd/Back)=(0,0,0) Caps=VideoProcess_YUV2RGB VideoProcess_StretchX VideoProcess_StretchY DeinterlaceTech_BOBVerticalStretch 
                     {6CB69578-7617-4637-91E5-1C02DB810285}: Format(In/Out)=(NV12,0x3231564e) Frames(Prev/Fwd/Back)=(0,0,0) Caps=VideoProcess_YUV2RGB VideoProcess_StretchX VideoProcess_StretchY DeinterlaceTech_PixelAdaptive 
                     {F9F19DA5-3B09-4B2F-9D89-C64753E3EAAB}: Format(In/Out)=(NV12,0x3231564e) Frames(Prev/Fwd/Back)=(0,0,0) Caps=VideoProcess_YUV2RGB VideoProcess_StretchX VideoProcess_StretchY 
                     {5A54A0C9-C7EC-4BD9-8EDE-F3C75DC4393B}: Format(In/Out)=(NV12,0x3231564e) Frames(Prev/Fwd/Back)=(0,0,0) Caps=VideoProcess_YUV2RGB VideoProcess_StretchX VideoProcess_StretchY 
                     {335AA36E-7884-43A4-9C91-7F87FAF3E37E}: Format(In/Out)=(NV12,0x3231564e) Frames(Prev/Fwd/Back)=(0,0,0) Caps=VideoProcess_YUV2RGB VideoProcess_StretchX VideoProcess_StretchY DeinterlaceTech_BOBVerticalStretch 
                     {6CB69578-7617-4637-91E5-1C02DB810285}: Format(In/Out)=(IMC1,UNKNOWN) Frames(Prev/Fwd/Back)=(0,0,0) Caps=
                     {F9F19DA5-3B09-4B2F-9D89-C64753E3EAAB}: Format(In/Out)=(IMC1,UNKNOWN) Frames(Prev/Fwd/Back)=(0,0,0) Caps=
                     {5A54A0C9-C7EC-4BD9-8EDE-F3C75DC4393B}: Format(In/Out)=(IMC1,UNKNOWN) Frames(Prev/Fwd/Back)=(0,0,0) Caps=
                     {335AA36E-7884-43A4-9C91-7F87FAF3E37E}: Format(In/Out)=(IMC1,UNKNOWN) Frames(Prev/Fwd/Back)=(0,0,0) Caps=
                     {6CB69578-7617-4637-91E5-1C02DB810285}: Format(In/Out)=(IMC2,UNKNOWN) Frames(Prev/Fwd/Back)=(0,0,0) Caps=
                     {F9F19DA5-3B09-4B2F-9D89-C64753E3EAAB}: Format(In/Out)=(IMC2,UNKNOWN) Frames(Prev/Fwd/Back)=(0,0,0) Caps=
                     {5A54A0C9-C7EC-4BD9-8EDE-F3C75DC4393B}: Format(In/Out)=(IMC2,UNKNOWN) Frames(Prev/Fwd/Back)=(0,0,0) Caps=
                     {335AA36E-7884-43A4-9C91-7F87FAF3E37E}: Format(In/Out)=(IMC2,UNKNOWN) Frames(Prev/Fwd/Back)=(0,0,0) Caps=
                     {6CB69578-7617-4637-91E5-1C02DB810285}: Format(In/Out)=(IMC3,UNKNOWN) Frames(Prev/Fwd/Back)=(0,0,0) Caps=
                     {F9F19DA5-3B09-4B2F-9D89-C64753E3EAAB}: Format(In/Out)=(IMC3,UNKNOWN) Frames(Prev/Fwd/Back)=(0,0,0) Caps=
                     {5A54A0C9-C7EC-4BD9-8EDE-F3C75DC4393B}: Format(In/Out)=(IMC3,UNKNOWN) Frames(Prev/Fwd/Back)=(0,0,0) Caps=
                     {335AA36E-7884-43A4-9C91-7F87FAF3E37E}: Format(In/Out)=(IMC3,UNKNOWN) Frames(Prev/Fwd/Back)=(0,0,0) Caps=
                     {6CB69578-7617-4637-91E5-1C02DB810285}: Format(In/Out)=(IMC4,UNKNOWN) Frames(Prev/Fwd/Back)=(0,0,0) Caps=
                     {F9F19DA5-3B09-4B2F-9D89-C64753E3EAAB}: Format(In/Out)=(IMC4,UNKNOWN) Frames(Prev/Fwd/Back)=(0,0,0) Caps=
                     {5A54A0C9-C7EC-4BD9-8EDE-F3C75DC4393B}: Format(In/Out)=(IMC4,UNKNOWN) Frames(Prev/Fwd/Back)=(0,0,0) Caps=
                     {335AA36E-7884-43A4-9C91-7F87FAF3E37E}: Format(In/Out)=(IMC4,UNKNOWN) Frames(Prev/Fwd/Back)=(0,0,0) Caps=
                     {6CB69578-7617-4637-91E5-1C02DB810285}: Format(In/Out)=(S340,UNKNOWN) Frames(Prev/Fwd/Back)=(0,0,0) Caps=
                     {F9F19DA5-3B09-4B2F-9D89-C64753E3EAAB}: Format(In/Out)=(S340,UNKNOWN) Frames(Prev/Fwd/Back)=(0,0,0) Caps=
                     {5A54A0C9-C7EC-4BD9-8EDE-F3C75DC4393B}: Format(In/Out)=(S340,UNKNOWN) Frames(Prev/Fwd/Back)=(0,0,0) Caps=
                     {335AA36E-7884-43A4-9C91-7F87FAF3E37E}: Format(In/Out)=(S340,UNKNOWN) Frames(Prev/Fwd/Back)=(0,0,0) Caps=
                     {6CB69578-7617-4637-91E5-1C02DB810285}: Format(In/Out)=(S342,UNKNOWN) Frames(Prev/Fwd/Back)=(0,0,0) Caps=
                     {F9F19DA5-3B09-4B2F-9D89-C64753E3EAAB}: Format(In/Out)=(S342,UNKNOWN) Frames(Prev/Fwd/Back)=(0,0,0) Caps=
                     {5A54A0C9-C7EC-4BD9-8EDE-F3C75DC4393B}: Format(In/Out)=(S342,UNKNOWN) Frames(Prev/Fwd/Back)=(0,0,0) Caps=
                     {335AA36E-7884-43A4-9C91-7F87FAF3E37E}: Format(In/Out)=(S342,UNKNOWN) Frames(Prev/Fwd/Back)=(0,0,0) Caps=
       D3D9 Overlay: Supported
            DXVA-HD: Supported
       DDraw Status: Enabled
         D3D Status: Enabled
         AGP Status: Enabled

-------------
Sound Devices
-------------
            Description: SONY TV-4 (NVIDIA High Definition Audio)
 Default Sound Playback: Yes
 Default Voice Playback: Yes
            Hardware ID: HDAUDIO\FUNC_01&VEN_10DE&DEV_0044&SUBSYS_38422883&REV_1001
        Manufacturer ID: 1
             Product ID: 100
                   Type: WDM
            Driver Name: nvhda64v.sys
         Driver Version: 1.03.0033.0000 (English)
      Driver Attributes: Final Retail
            WHQL Logo'd: Yes
          Date and Size: 12/17/2014 02:18:02, 195728 bytes
            Other Files: 
        Driver Provider: NVIDIA Corporation
         HW Accel Level: Basic
              Cap Flags: 0xF1F
    Min/Max Sample Rate: 100, 200000
Static/Strm HW Mix Bufs: 1, 0
 Static/Strm HW 3D Bufs: 0, 0
              HW Memory: 0
       Voice Management: No
 EAX(tm) 2.0 Listen/Src: No, No
   I3DL2(tm) Listen/Src: No, No
Sensaura(tm) ZoomFX(tm): No

            Description: Speakers (2- Realtek High Definition Audio)
 Default Sound Playback: No
 Default Voice Playback: No
            Hardware ID: HDAUDIO\FUNC_01&VEN_10EC&DEV_0900&SUBSYS_10438602&REV_1000
        Manufacturer ID: 1
             Product ID: 100
                   Type: WDM
            Driver Name: RTKVHD64.sys
         Driver Version: 6.00.0001.7218 (English)
      Driver Attributes: Final Retail
            WHQL Logo'd: Yes
          Date and Size: 4/8/2014 18:57:06, 3917272 bytes
            Other Files: 
        Driver Provider: Realtek Semiconductor Corp.
         HW Accel Level: Basic
              Cap Flags: 0xF1F
    Min/Max Sample Rate: 100, 200000
Static/Strm HW Mix Bufs: 1, 0
 Static/Strm HW 3D Bufs: 0, 0
              HW Memory: 0
       Voice Management: No
 EAX(tm) 2.0 Listen/Src: No, No
   I3DL2(tm) Listen/Src: No, No
Sensaura(tm) ZoomFX(tm): No

            Description: Realtek Digital Output (2- Realtek High Definition Audio)
 Default Sound Playback: No
 Default Voice Playback: No
            Hardware ID: HDAUDIO\FUNC_01&VEN_10EC&DEV_0900&SUBSYS_10438602&REV_1000
        Manufacturer ID: 1
             Product ID: 100
                   Type: WDM
            Driver Name: RTKVHD64.sys
         Driver Version: 6.00.0001.7218 (English)
      Driver Attributes: Final Retail
            WHQL Logo'd: Yes
          Date and Size: 4/8/2014 18:57:06, 3917272 bytes
            Other Files: 
        Driver Provider: Realtek Semiconductor Corp.
         HW Accel Level: Basic
              Cap Flags: 0xF1F
    Min/Max Sample Rate: 100, 200000
Static/Strm HW Mix Bufs: 1, 0
 Static/Strm HW 3D Bufs: 0, 0
              HW Memory: 0
       Voice Management: No
 EAX(tm) 2.0 Listen/Src: No, No
   I3DL2(tm) Listen/Src: No, No
Sensaura(tm) ZoomFX(tm): No

---------------------
Sound Capture Devices
---------------------
            Description: Microphone (2- Realtek High Definition Audio)
  Default Sound Capture: Yes
  Default Voice Capture: Yes
            Driver Name: RTKVHD64.sys
         Driver Version: 6.00.0001.7218 (English)
      Driver Attributes: Final Retail
          Date and Size: 4/8/2014 18:57:06, 3917272 bytes
              Cap Flags: 0x1
           Format Flags: 0xFFFFF

---------------------
Video Capture Devices
Number of Devices: 0
---------------------
-------------------
DirectInput Devices
-------------------
      Device Name: Mouse
         Attached: 1
    Controller ID: n/a
Vendor/Product ID: n/a
        FF Driver: n/a

      Device Name: Keyboard
         Attached: 1
    Controller ID: n/a
Vendor/Product ID: n/a
        FF Driver: n/a

      Device Name: Corsair M65 Gaming Mouse
         Attached: 1
    Controller ID: 0x0
Vendor/Product ID: 0x1B1C, 0x1B05
        FF Driver: n/a

      Device Name: Razer DeathStalker
         Attached: 1
    Controller ID: 0x0
Vendor/Product ID: 0x1532, 0x0202
        FF Driver: n/a

      Device Name: Razer DeathStalker
         Attached: 1
    Controller ID: 0x0
Vendor/Product ID: 0x1532, 0x0202
        FF Driver: n/a

      Device Name: Razer DeathStalker
         Attached: 1
    Controller ID: 0x0
Vendor/Product ID: 0x1532, 0x0202
        FF Driver: n/a

      Device Name: Razer DeathStalker
         Attached: 1
    Controller ID: 0x0
Vendor/Product ID: 0x1532, 0x0202
        FF Driver: n/a

Poll w/ Interrupt: No

-----------
USB Devices
-----------
+ USB Root Hub
| Vendor/Product ID: 0x8086, 0x8CA6
| Matching Device ID: USB\ROOT_HUB20
| Service: usbhub
| Driver: usbhub.sys, 7/24/2014 12:28:38, 419648 bytes
| Driver: usbd.sys, 5/31/2014 07:07:07, 27480 bytes
| 
+-+ Generic USB Hub
| | Vendor/Product ID: 0x8087, 0x8001
| | Location: Port_#0001.Hub_#0002
| | Matching Device ID: USB\Class_09
| | Service: usbhub
| | Driver: usbhub.sys, 7/24/2014 12:28:38, 419648 bytes
| | Driver: usbd.sys, 5/31/2014 07:07:07, 27480 bytes

----------------
Gameport Devices
----------------

------------
PS/2 Devices
------------
+ Razer DeathStalker
| Vendor/Product ID: 0x1532, 0x0202
| Matching Device ID: HID\VID_1532&PID_0202&MI_01&Col01
| Upper Filters: rzudd
| Service: kbdhid
| Driver: rzudd.sys, 9/5/2014 00:27:52, 160424 bytes
| Driver: kbdhid.sys, 11/4/2014 03:54:47, 32256 bytes
| Driver: kbdclass.sys, 11/4/2014 16:25:09, 59712 bytes
| Driver: WdfCoInstaller01009.dll, 11/8/2012 15:29:36, 1721576 bytes
| 
+ HID Keyboard Device
| Vendor/Product ID: 0x1532, 0x0202
| Matching Device ID: HID_DEVICE_SYSTEM_KEYBOARD
| Service: kbdhid
| Driver: kbdhid.sys, 11/4/2014 03:54:47, 32256 bytes
| Driver: kbdclass.sys, 11/4/2014 16:25:09, 59712 bytes
| 
+ HID Keyboard Device
| Vendor/Product ID: 0x1B1C, 0x1B05
| Matching Device ID: HID_DEVICE_SYSTEM_KEYBOARD
| Service: kbdhid
| Driver: kbdhid.sys, 11/4/2014 03:54:47, 32256 bytes
| Driver: kbdclass.sys, 11/4/2014 16:25:09, 59712 bytes
| 
+ Razer DeathStalker
| Vendor/Product ID: 0x1532, 0x0202
| Matching Device ID: HID\VID_1532&PID_0202&MI_02
| Upper Filters: rzudd
| Service: mouhid
| Driver: rzudd.sys, 9/5/2014 00:27:52, 160424 bytes
| Driver: mouhid.sys, 11/4/2014 03:54:47, 30208 bytes
| Driver: mouclass.sys, 11/4/2014 16:25:09, 51008 bytes
| Driver: WdfCoInstaller01009.dll, 11/8/2012 15:29:36, 1721576 bytes
| 
+ HID-compliant mouse
| Vendor/Product ID: 0x1B1C, 0x1B05
| Matching Device ID: HID_DEVICE_SYSTEM_MOUSE
| Service: mouhid
| Driver: mouhid.sys, 11/4/2014 03:54:47, 30208 bytes
| Driver: mouclass.sys, 11/4/2014 16:25:09, 51008 bytes

------------------------
Disk & DVD/CD-ROM Drives
------------------------
      Drive: C:
 Free Space: 34.8 GB
Total Space: 114.1 GB
File System: NTFS
      Model: ST120HM000-1G5142

      Drive: D:
 Free Space: 84.7 GB
Total Space: 953.7 GB
File System: NTFS
      Model: ST1000DX001-1CM162

--------------
System Devices
--------------
     Name: Intel(R) Management Engine Interface 
Device ID: PCI\VEN_8086&DEV_8CBA&SUBSYS_85341043&REV_00\3&11583659&0&B0
   Driver: C:\WINDOWS\system32\DRIVERS\TeeDriverx64.sys, 10.00.0030.1054 (English), 9/30/2014 17:47:28, 129312 bytes
   Driver: C:\ProgramData\Microsoft\Windows\DeviceMetadataStore\EN\3f3ca95b-3978-4168-b47b-5444f42d6c89.devicemetadata-ms, 9/30/2014 17:47:28, 938 bytes
   Driver: C:\ProgramData\Microsoft\Windows\DeviceMetadataStore\EN\46a6fdbe-c823-4579-bab6-35f67e01f793.devicemetadata-ms, 9/30/2014 17:47:28, 833 bytes
   Driver: C:\WINDOWS\system32\WdfCoInstaller01011.dll, 1.11.9200.16384 (English), 3/19/2014 14:27:44, 1795952 bytes

     Name: Intel(R) 9 Series Chipset Family PCI Express Root Port 4  - 8C96
Device ID: PCI\VEN_8086&DEV_8C96&SUBSYS_85341043&REV_D0\3&11583659&0&E3
   Driver: C:\WINDOWS\system32\DRIVERS\pci.sys, 6.03.9600.17238 (English), 7/24/2014 12:28:35, 280384 bytes

     Name: Intel(R) USB 3.0 eXtensible Host Controller - 0100 (Microsoft)
Device ID: PCI\VEN_8086&DEV_8CB1&SUBSYS_85341043&REV_00\3&11583659&0&A0
   Driver: C:\WINDOWS\system32\DRIVERS\UCX01000.SYS, 6.03.9600.17393 (English), 10/7/2014 03:54:45, 189248 bytes
   Driver: C:\WINDOWS\system32\DRIVERS\USBXHCI.SYS, 6.03.9600.17393 (English), 10/7/2014 03:54:45, 324928 bytes

     Name: Intel(R) Ethernet Connection (2) I218-V
Device ID: PCI\VEN_8086&DEV_15A1&SUBSYS_85C41043&REV_00\3&11583659&0&C8
   Driver: C:\WINDOWS\system32\DRIVERS\e1d64x64.sys, 12.11.0096.0001 (English), 3/14/2014 00:10:28, 457496 bytes
   Driver: C:\WINDOWS\system32\e1d64x64.din, 3/14/2014 00:22:58, 3114 bytes
   Driver: C:\WINDOWS\system32\NicCo36.dll, 2.01.0002.0000 (English), 5/25/2009 23:05:46, 36472 bytes
   Driver: C:\WINDOWS\system32\NicInstD.dll, 9.11.0007.0000 (English), 12/5/2013 19:12:22, 91936 bytes
   Driver: C:\WINDOWS\system32\e1dmsg.dll, 10.00.0172.0000 (English), 11/21/2013 17:57:56, 73480 bytes

     Name: NVIDIA GeForce GTX 780 Ti 
Device ID: PCI\VEN_10DE&DEV_100A&SUBSYS_28833842&REV_A1\4&3834D97&0&0008
   Driver: C:\Program Files\NVIDIA Corporation\Drs\dbInstaller.exe, 9.18.0013.4788 (English), 3/13/2015 16:41:47, 447632 bytes
   Driver: C:\Program Files\NVIDIA Corporation\Drs\nvdrsdb.bin, 3/13/2015 16:41:47, 1283208 bytes
   Driver: C:\WINDOWS\System32\DriverStore\FileRepository\nv_dispi.inf_amd64_1d0e620ca73e9644\NvCplSetupInt.exe, 1.00.0005.0000 (English), 3/13/2015 16:41:47, 85751536 bytes
   Driver: C:\Program Files (x86)\NVIDIA Corporation\coprocmanager\Nvd3d9wrap.dll, 9.18.0013.4788 (English), 3/13/2015 16:41:47, 160472 bytes
   Driver: C:\Program Files (x86)\NVIDIA Corporation\coprocmanager\detoured.dll, 3/13/2015 16:41:47, 11920 bytes
   Driver: C:\Program Files (x86)\NVIDIA Corporation\coprocmanager\nvdxgiwrap.dll, 9.18.0013.4788 (English), 3/13/2015 16:41:47, 107912 bytes
   Driver: C:\Program Files\NVIDIA Corporation\coprocmanager\Nvd3d9wrapx.dll, 9.18.0013.4788 (English), 3/13/2015 16:41:47, 185704 bytes
   Driver: C:\Program Files\NVIDIA Corporation\coprocmanager\detoured.dll, 3/13/2015 16:41:47, 11920 bytes
   Driver: C:\Program Files\NVIDIA Corporation\coprocmanager\nvdxgiwrapx.dll, 9.18.0013.4788 (English), 3/13/2015 16:41:47, 126976 bytes
   Driver: C:\Program Files\NVIDIA Corporation\license.txt, 3/13/2015 16:41:47, 21910 bytes
   Driver: C:\Program Files\NVIDIA Corporation\NVSMI\MCU.exe, 1.01.5204.20580 (English), 3/13/2015 16:41:47, 841360 bytes
   Driver: C:\Program Files\NVIDIA Corporation\NVSMI\nvdebugdump.exe, 6.14.0013.4788 (English), 3/13/2015 16:41:47, 227984 bytes
   Driver: C:\Program Files\NVIDIA Corporation\NVSMI\nvidia-smi.1.pdf, 3/13/2015 16:41:47, 69312 bytes
   Driver: C:\Program Files\NVIDIA Corporation\NVSMI\nvidia-smi.exe, 8.17.0013.4788 (English), 3/13/2015 16:41:47, 415376 bytes
   Driver: C:\Program Files\NVIDIA Corporation\NVSMI\nvml.dll, 8.17.0013.4788 (English), 3/13/2015 16:41:47, 648392 bytes
   Driver: C:\Program Files\NVIDIA Corporation\OpenCL\OpenCL.dll, 1.00.0000.0000 (English), 3/13/2015 16:41:47, 60560 bytes
   Driver: C:\Program Files\NVIDIA Corporation\OpenCL\OpenCL64.dll, 1.00.0000.0000 (English), 3/13/2015 16:41:47, 73872 bytes
   Driver: C:\WINDOWS\system32\DRIVERS\nvlddmkm.sys, 9.18.0013.4788 (English), 3/13/2015 16:41:47, 10262160 bytes
   Driver: C:\WINDOWS\system32\NvFBC64.dll, 6.14.0013.4788 (English), 3/13/2015 16:41:47, 944784 bytes
   Driver: C:\WINDOWS\system32\NvIFR64.dll, 6.14.0013.4788 (English), 3/13/2015 16:41:47, 970384 bytes
   Driver: C:\WINDOWS\system32\NvIFROpenGL.dll, 9.18.0013.4788 (English), 3/13/2015 16:41:47, 390288 bytes
   Driver: C:\WINDOWS\system32\nvEncodeAPI64.dll, 6.14.0013.4788 (English), 3/13/2015 16:41:47, 496272 bytes
   Driver: C:\WINDOWS\system32\nvapi64.dll, 9.18.0013.4788 (English), 3/13/2015 16:41:47, 3303448 bytes
   Driver: C:\WINDOWS\system32\nvcompiler.dll, 8.17.0013.4788 (English), 3/13/2015 16:41:47, 25460880 bytes
   Driver: C:\WINDOWS\system32\nvcuda.dll, 8.17.0013.4788 (English), 3/13/2015 16:41:47, 13210080 bytes
   Driver: C:\WINDOWS\system32\nvcuvid.dll, 7.17.0013.4788 (English), 3/13/2015 16:41:47, 3611792 bytes
   Driver: C:\WINDOWS\system32\nvd3dumx.dll, 9.18.0013.4788 (English), 3/13/2015 16:41:47, 17258024 bytes
   Driver: C:\WINDOWS\system32\nvinfo.pb, 3/13/2015 16:41:47, 27441 bytes
   Driver: C:\WINDOWS\system32\nvinitx.dll, 9.18.0013.4788 (English), 3/13/2015 16:41:47, 178512 bytes
   Driver: C:\WINDOWS\system32\nvmcumd.dll, 3/13/2015 16:41:47, 833680 bytes
   Driver: C:\WINDOWS\system32\nvoglshim64.dll, 9.18.0013.4788 (English), 3/13/2015 16:41:47, 354112 bytes
   Driver: C:\WINDOWS\system32\nvoglv64.dll, 9.18.0013.4788 (English), 3/13/2015 16:41:47, 32114888 bytes
   Driver: C:\WINDOWS\system32\nvopencl.dll, 8.17.0013.4788 (English), 3/13/2015 16:41:47, 13297144 bytes
   Driver: C:\WINDOWS\system32\nvumdshimx.dll, 9.18.0013.4788 (English), 3/13/2015 16:41:47, 997856 bytes
   Driver: C:\WINDOWS\system32\nvwgf2umx.dll, 9.18.0013.4788 (English), 3/13/2015 16:41:47, 18580512 bytes
   Driver: C:\WINDOWS\SysWow64\NvFBC.dll, 6.14.0013.4788 (English), 3/13/2015 16:41:47, 909512 bytes
   Driver: C:\WINDOWS\SysWow64\NvIFR.dll, 6.14.0013.4788 (English), 3/13/2015 16:41:47, 930448 bytes
   Driver: C:\WINDOWS\SysWow64\NvIFROpenGL.dll, 9.18.0013.4788 (English), 3/13/2015 16:41:47, 346824 bytes
   Driver: C:\WINDOWS\SysWow64\nvEncodeAPI.dll, 6.14.0013.4788 (English), 3/13/2015 16:41:47, 400584 bytes
   Driver: C:\WINDOWS\SysWow64\nvapi.dll, 9.18.0013.4788 (English), 3/13/2015 16:41:47, 2906928 bytes
   Driver: C:\WINDOWS\SysWow64\nvcompiler.dll, 8.17.0013.4788 (English), 3/13/2015 16:41:47, 20466376 bytes
   Driver: C:\WINDOWS\SysWow64\nvcuda.dll, 8.17.0013.4788 (English), 3/13/2015 16:41:47, 10715864 bytes
   Driver: C:\WINDOWS\SysWow64\nvcuvid.dll, 7.17.0013.4788 (English), 3/13/2015 16:41:47, 3249352 bytes
   Driver: C:\WINDOWS\SysWow64\nvd3dum.dll, 9.18.0013.4788 (English), 3/13/2015 16:41:47, 14121624 bytes
   Driver: C:\WINDOWS\SysWow64\nvinit.dll, 9.18.0013.4788 (English), 3/13/2015 16:41:47, 164568 bytes
   Driver: C:\WINDOWS\SysWow64\nvoglshim32.dll, 9.18.0013.4788 (English), 3/13/2015 16:41:47, 306208 bytes
   Driver: C:\WINDOWS\SysWow64\nvoglv32.dll, 9.18.0013.4788 (English), 3/13/2015 16:41:47, 24775368 bytes
   Driver: C:\WINDOWS\SysWow64\nvopencl.dll, 8.17.0013.4788 (English), 3/13/2015 16:41:47, 10775080 bytes
   Driver: C:\WINDOWS\SysWow64\nvumdshim.dll, 9.18.0013.4788 (English), 3/13/2015 16:41:47, 878328 bytes
   Driver: C:\WINDOWS\SysWow64\nvwgf2um.dll, 9.18.0013.4788 (English), 3/13/2015 16:41:47, 16022016 bytes
   Driver: C:\WINDOWS\system32\nvdispco6434788.dll, 2.00.0041.0004 (English), 3/13/2015 16:41:47, 1896136 bytes
   Driver: C:\WINDOWS\system32\nvdispgenco6434788.dll, 2.00.0020.0002 (English), 3/13/2015 16:41:47, 1557648 bytes

     Name: Intel(R) 9 Series Chipset Family High Definition Audio Controller  - 8CA0
Device ID: PCI\VEN_8086&DEV_8CA0&SUBSYS_86021043&REV_00\3&11583659&0&D8
   Driver: C:\WINDOWS\system32\DRIVERS\hdaudbus.sys, 6.03.9600.17238 (English), 7/24/2014 08:45:39, 76800 bytes

     Name: Intel(R) Xeon(R) processor E3-1200 v3/4th Gen Core processor PCI Express x16 Controller - 0C01
Device ID: PCI\VEN_8086&DEV_0C01&SUBSYS_85341043&REV_06\3&11583659&0&08
   Driver: C:\WINDOWS\system32\DRIVERS\pci.sys, 6.03.9600.17238 (English), 7/24/2014 12:28:35, 280384 bytes

     Name: Intel(R) 9 Series Chipset Family USB Enhanced Host Controller  - 8CA6
Device ID: PCI\VEN_8086&DEV_8CA6&SUBSYS_85341043&REV_00\3&11583659&0&E8
   Driver: C:\WINDOWS\system32\drivers\usbehci.sys, 6.03.9600.17195 (English), 5/31/2014 07:07:08, 89944 bytes
   Driver: C:\WINDOWS\system32\drivers\usbport.sys, 6.03.9600.17195 (English), 5/31/2014 07:07:07, 440664 bytes
   Driver: C:\WINDOWS\system32\drivers\usbhub.sys, 6.03.9600.17238 (English), 7/24/2014 12:28:38, 419648 bytes

     Name: Standard SATA AHCI Controller
Device ID: PCI\VEN_1B21&DEV_0612&SUBSYS_858D1043&REV_02\4&E561B7A&0&00E3
   Driver: C:\WINDOWS\system32\DRIVERS\storahci.sys, 6.03.9600.16384 (English), 8/22/2013 09:43:31, 107872 bytes

     Name: Intel(R) 9 Series Chipset Family USB Enhanced Host Controller  - 8CAD
Device ID: PCI\VEN_8086&DEV_8CAD&SUBSYS_85341043&REV_00\3&11583659&0&D0
   Driver: C:\WINDOWS\system32\drivers\usbehci.sys, 6.03.9600.17195 (English), 5/31/2014 07:07:08, 89944 bytes
   Driver: C:\WINDOWS\system32\drivers\usbport.sys, 6.03.9600.17195 (English), 5/31/2014 07:07:07, 440664 bytes
   Driver: C:\WINDOWS\system32\drivers\usbhub.sys, 6.03.9600.17238 (English), 7/24/2014 12:28:38, 419648 bytes

     Name: Intel(R) 9 Series Chipset Family SATA AHCI Controller  - 8C82
Device ID: PCI\VEN_8086&DEV_8C82&SUBSYS_85341043&REV_00\3&11583659&0&FA
   Driver: C:\WINDOWS\system32\DRIVERS\storahci.sys, 6.03.9600.16384 (English), 8/22/2013 09:43:31, 107872 bytes

     Name: Intel(R) Z97 Chipset LPC Controller  - 8CC4
Device ID: PCI\VEN_8086&DEV_8CC4&SUBSYS_85341043&REV_00\3&11583659&0&F8
   Driver: C:\WINDOWS\system32\DRIVERS\msisadrv.sys, 6.03.9600.16384 (English), 8/22/2013 09:43:49, 17248 bytes

     Name: Intel(R) 9 Series Chipset Family PCI Express Root Port 1 - 8C90
Device ID: PCI\VEN_8086&DEV_8C90&SUBSYS_85341043&REV_D0\3&11583659&0&E0
   Driver: C:\WINDOWS\system32\DRIVERS\pci.sys, 6.03.9600.17238 (English), 7/24/2014 12:28:35, 280384 bytes

     Name: Intel(R) 9 Series Chipset Family SMBus Host Controller  - 8CA2
Device ID: PCI\VEN_8086&DEV_8CA2&SUBSYS_85341043&REV_00\3&11583659&0&FB
   Driver: n/a

     Name: High Definition Audio Controller
Device ID: PCI\VEN_10DE&DEV_0E1A&SUBSYS_28833842&REV_A1\4&3834D97&0&0108
   Driver: C:\WINDOWS\system32\DRIVERS\hdaudbus.sys, 6.03.9600.17238 (English), 7/24/2014 08:45:39, 76800 bytes

     Name: Intel(R) 4th Gen Core processor DRAM Controller - 0C00
Device ID: PCI\VEN_8086&DEV_0C00&SUBSYS_85341043&REV_06\3&11583659&0&00
   Driver: n/a

------------------
DirectShow Filters
------------------

DirectShow Filters:
WMAudio Decoder DMO,0x00800800,1,1,WMADMOD.DLL,6.03.9600.17415
WMAPro over S/PDIF DMO,0x00600800,1,1,WMADMOD.DLL,6.03.9600.17415
WMSpeech Decoder DMO,0x00600800,1,1,WMSPDMOD.DLL,6.03.9600.17415
MP3 Decoder DMO,0x00600800,1,1,mp3dmod.dll,6.03.9600.17415
Mpeg4s Decoder DMO,0x00800001,1,1,mp4sdecd.dll,6.03.9600.17415
WMV Screen decoder DMO,0x00600800,1,1,wmvsdecd.dll,6.03.9600.17415
WMVideo Decoder DMO,0x00800001,1,1,wmvdecod.dll,6.03.9600.17415
Mpeg43 Decoder DMO,0x00800001,1,1,mp43decd.dll,6.03.9600.17415
Mpeg4 Decoder DMO,0x00800001,1,1,mpg4decd.dll,6.03.9600.17415
DV Muxer,0x00400000,0,0,qdv.dll,6.06.9600.17415
Color Space Converter,0x00400001,1,1,quartz.dll,6.06.9600.17415
WM ASF Reader,0x00400000,0,0,qasf.dll,12.00.9600.17415
AVI Splitter,0x00600000,1,1,quartz.dll,6.06.9600.17415
VGA 16 Color Ditherer,0x00400000,1,1,quartz.dll,6.06.9600.17415
SBE2MediaTypeProfile,0x00200000,0,0,sbe.dll,6.06.9600.17415
Microsoft DTV-DVD Video Decoder,0x005fffff,2,4,msmpeg2vdec.dll,12.00.9600.17374
AC3 Parser Filter,0x00600000,1,1,mpg2splt.ax,6.06.9600.17415
StreamBufferSink,0x00200000,0,0,sbe.dll,6.06.9600.17415
MJPEG Decompressor,0x00600000,1,1,quartz.dll,6.06.9600.17415
MPEG-I Stream Splitter,0x00600000,1,2,quartz.dll,6.06.9600.17415
SAMI (CC) Parser,0x00400000,1,1,quartz.dll,6.06.9600.17415
VBI Codec,0x00600000,1,4,VBICodec.ax,6.06.9600.17415
MPEG-2 Splitter,0x005fffff,1,0,mpg2splt.ax,6.06.9600.17415
Closed Captions Analysis Filter,0x00200000,2,5,cca.dll,6.06.9600.17415
SBE2FileScan,0x00200000,0,0,sbe.dll,6.06.9600.17415
Microsoft MPEG-2 Video Encoder,0x00200000,1,1,msmpeg2enc.dll,12.00.9600.17415
Internal Script Command Renderer,0x00800001,1,0,quartz.dll,6.06.9600.17415
MPEG Audio Decoder,0x03680001,1,1,quartz.dll,6.06.9600.17415
DV Splitter,0x00600000,1,2,qdv.dll,6.06.9600.17415
Video Mixing Renderer 9,0x00200000,1,0,quartz.dll,6.06.9600.17415
Microsoft MPEG-2 Encoder,0x00200000,2,1,msmpeg2enc.dll,12.00.9600.17415
ACM Wrapper,0x00600000,1,1,quartz.dll,6.06.9600.17415
Video Renderer,0x00800001,1,0,quartz.dll,6.06.9600.17415
MPEG-2 Video Stream Analyzer,0x00200000,0,0,sbe.dll,6.06.9600.17415
Line 21 Decoder,0x00600000,1,1,,
Video Port Manager,0x00600000,2,1,quartz.dll,6.06.9600.17415
Video Renderer,0x00400000,1,0,quartz.dll,6.06.9600.17415
VPS Decoder,0x00200000,0,0,WSTPager.ax,6.06.9600.17415
WM ASF Writer,0x00400000,0,0,qasf.dll,12.00.9600.17415
VBI Surface Allocator,0x00600000,1,1,vbisurf.ax,6.03.9600.17415
File writer,0x00200000,1,0,qcap.dll,6.06.9600.16384
DVD Navigator,0x00200000,0,3,qdvd.dll,6.06.9600.17415
Overlay Mixer2,0x00200000,1,1,,
Microsoft MPEG-2 Audio Encoder,0x00200000,1,1,msmpeg2enc.dll,12.00.9600.17415
WST Pager,0x00200000,1,1,WSTPager.ax,6.06.9600.17415
MPEG-2 Demultiplexer,0x00600000,1,1,mpg2splt.ax,6.06.9600.17415
DV Video Decoder,0x00800000,1,1,qdv.dll,6.06.9600.17415
SampleGrabber,0x00200000,1,1,qedit.dll,6.06.9600.17415
Null Renderer,0x00200000,1,0,qedit.dll,6.06.9600.17415
MPEG-2 Sections and Tables,0x005fffff,1,0,Mpeg2Data.ax,6.06.9600.17415
Microsoft AC3 Encoder,0x00200000,1,1,msac3enc.dll,6.03.9600.17415
StreamBufferSource,0x00200000,0,0,sbe.dll,6.06.9600.17415
Smart Tee,0x00200000,1,2,qcap.dll,6.06.9600.16384
Overlay Mixer,0x00200000,0,0,,
AVI Decompressor,0x00600000,1,1,quartz.dll,6.06.9600.17415
AVI/WAV File Source,0x00400000,0,2,quartz.dll,6.06.9600.17415
Wave Parser,0x00400000,1,1,quartz.dll,6.06.9600.17415
MIDI Parser,0x00400000,1,1,quartz.dll,6.06.9600.17415
Multi-file Parser,0x00400000,1,1,quartz.dll,6.06.9600.17415
File stream renderer,0x00400000,1,1,quartz.dll,6.06.9600.17415
Microsoft DTV-DVD Audio Decoder,0x005fffff,1,1,msmpeg2adec.dll,12.00.9477.0000
StreamBufferSink2,0x00200000,0,0,sbe.dll,6.06.9600.17415
AVI Mux,0x00200000,1,0,qcap.dll,6.06.9600.16384
Line 21 Decoder 2,0x00600002,1,1,quartz.dll,6.06.9600.17415
File Source (Async.),0x00400000,0,1,quartz.dll,6.06.9600.17415
File Source (URL),0x00400000,0,1,quartz.dll,6.06.9600.17415
AudioRecorder WAV Dest,0x00200000,0,0,WavDest.dll,
AudioRecorder Wave Form,0x00200000,0,0,WavDest.dll,
SoundRecorder Null Renderer,0x00200000,0,0,WavDest.dll,
Infinite Pin Tee Filter,0x00200000,1,1,qcap.dll,6.06.9600.16384
Enhanced Video Renderer,0x00200000,1,0,evr.dll,6.03.9600.17415
BDA MPEG2 Transport Information Filter,0x00200000,2,0,psisrndr.ax,6.06.9600.17415
MPEG Video Decoder,0x40000001,1,1,quartz.dll,6.06.9600.17415

WDM Streaming Tee/Splitter Devices:
Tee/Sink-to-Sink Converter,0x00200000,1,1,ksproxy.ax,6.03.9600.17415

Video Compressors:
WMVideo8 Encoder DMO,0x00600800,1,1,wmvxencd.dll,6.03.9600.17415
WMVideo9 Encoder DMO,0x00600800,1,1,wmvencod.dll,6.03.9600.17415
MSScreen 9 encoder DMO,0x00600800,1,1,wmvsencd.dll,6.03.9600.17415
DV Video Encoder,0x00200000,0,0,qdv.dll,6.06.9600.17415
MJPEG Compressor,0x00200000,0,0,quartz.dll,6.06.9600.17415

Audio Compressors:
WM Speech Encoder DMO,0x00600800,1,1,WMSPDMOE.DLL,6.03.9600.17415
WMAudio Encoder DMO,0x00600800,1,1,WMADMOE.DLL,6.03.9600.17415
IMA ADPCM,0x00200000,1,1,quartz.dll,6.06.9600.17415
PCM,0x00200000,1,1,quartz.dll,6.06.9600.17415
Microsoft ADPCM,0x00200000,1,1,quartz.dll,6.06.9600.17415
GSM 6.10,0x00200000,1,1,quartz.dll,6.06.9600.17415
CCITT A-Law,0x00200000,1,1,quartz.dll,6.06.9600.17415
CCITT u-Law,0x00200000,1,1,quartz.dll,6.06.9600.17415
MPEG Layer-3,0x00200000,1,1,quartz.dll,6.06.9600.17415

Audio Capture Sources:
Microphone (2- Realtek High Definition Audio),0x00200000,0,0,qcap.dll,6.06.9600.16384

PBDA CP Filters:
PBDA DTFilter,0x00600000,1,1,CPFilters.dll,6.06.9600.17415
PBDA ETFilter,0x00200000,0,0,CPFilters.dll,6.06.9600.17415
PBDA PTFilter,0x00200000,0,0,CPFilters.dll,6.06.9600.17415

Midi Renderers:
Default MidiOut Device,0x00800000,1,0,quartz.dll,6.06.9600.17415
Microsoft GS Wavetable Synth,0x00200000,1,0,quartz.dll,6.06.9600.17415

WDM Streaming Capture Devices:
Realtek HD Audio Mic input,0x00200000,1,1,ksproxy.ax,6.03.9600.17415
Realtek HD Audio Stereo input,0x00200000,1,1,ksproxy.ax,6.03.9600.17415
Realtek HD Audio Line input,0x00200000,1,1,ksproxy.ax,6.03.9600.17415
,0x00000000,0,0,,

WDM Streaming Rendering Devices:
Realtek HDA SPDIF Out,0x00200000,1,1,ksproxy.ax,6.03.9600.17415
Realtek HD Audio output,0x00200000,1,1,ksproxy.ax,6.03.9600.17415
,0x00000000,0,0,,

BDA Network Providers:
Microsoft ATSC Network Provider,0x00200000,0,1,MSDvbNP.ax,6.06.9600.17415
Microsoft DVBC Network Provider,0x00200000,0,1,MSDvbNP.ax,6.06.9600.17415
Microsoft DVBS Network Provider,0x00200000,0,1,MSDvbNP.ax,6.06.9600.17415
Microsoft DVBT Network Provider,0x00200000,0,1,MSDvbNP.ax,6.06.9600.17415
Microsoft Network Provider,0x00200000,0,1,MSNP.ax,6.06.9600.17415

Multi-Instance Capable VBI Codecs:
VBI Codec,0x00600000,1,4,VBICodec.ax,6.06.9600.17415

BDA Transport Information Renderers:
BDA MPEG2 Transport Information Filter,0x00600000,2,0,psisrndr.ax,6.06.9600.17415
MPEG-2 Sections and Tables,0x00600000,1,0,Mpeg2Data.ax,6.06.9600.17415

BDA CP/CA Filters:
Decrypt/Tag,0x00600000,1,1,EncDec.dll,6.06.9600.17415
Encrypt/Tag,0x00200000,0,0,EncDec.dll,6.06.9600.17415
PTFilter,0x00200000,0,0,EncDec.dll,6.06.9600.17415
XDS Codec,0x00200000,0,0,EncDec.dll,6.06.9600.17415

WDM Streaming Communication Transforms:
Tee/Sink-to-Sink Converter,0x00200000,1,1,ksproxy.ax,6.03.9600.17415

Audio Renderers:
SONY TV-4 (NVIDIA High Definition Audio),0x00200000,1,0,quartz.dll,6.06.9600.17415
Default DirectSound Device,0x00800000,1,0,quartz.dll,6.06.9600.17415
Default WaveOut Device,0x00200000,1,0,quartz.dll,6.06.9600.17415
DirectSound: Speakers (2- Realtek High Definition Audio),0x00200000,1,0,quartz.dll,6.06.9600.17415
DirectSound: SONY TV-4 (NVIDIA High Definition Audio),0x00200000,1,0,quartz.dll,6.06.9600.17415
DirectSound: Realtek Digital Output (2- Realtek High Definition Audio),0x00200000,1,0,quartz.dll,6.06.9600.17415
Speakers (2- Realtek High Definition Audio),0x00200000,1,0,quartz.dll,6.06.9600.17415
Realtek Digital Output (2- Realtek High Definition Audio),0x00200000,1,0,quartz.dll,6.06.9600.17415


----------------------------
Preferred DirectShow Filters
----------------------------

[HKEY_LOCAL_MACHINE\Software\Microsoft\DirectShow\Preferred]

<media subtype GUID>, [<filter friendly name>, ]<filter CLSID>

MEDIASUBTYPE_WMAUDIO_LOSSLESS, WMAudio Decoder DMO, CLSID_CWMADecMediaObject
MEDIASUBTYPE_MPG4, Mpeg4 Decoder DMO, CLSID_CMpeg4DecMediaObject
WMMEDIASUBTYPE_WMSP2, WMSpeech Decoder DMO, CLSID_CWMSPDecMediaObject
MEDIASUBTYPE_WVC1, WMVideo Decoder DMO, CLSID_CWMVDecMediaObject
{64687664-0000-0010-8000-00AA00389B71}, DV Video Decoder, CLSID_DVVideoCodec
MEDIASUBTYPE_h264, Microsoft DTV-DVD Video Decoder, CLSID_CMPEG2VidDecoderDS
MEDIASUBTYPE_MPEG1AudioPayload, MPEG Audio Decoder, CLSID_CMpegAudioCodec
{78766964-0000-0010-8000-00AA00389B71}, Mpeg4s Decoder DMO, CLSID_CMpeg4sDecMediaObject
MEDIASUBTYPE_WMAUDIO3, WMAudio Decoder DMO, CLSID_CWMADecMediaObject
MEDIASUBTYPE_WMV2, WMVideo Decoder DMO, CLSID_CWMVDecMediaObject
MEDIASUBTYPE_MPEG2_AUDIO, Microsoft DTV-DVD Audio Decoder, CLSID_CMPEG2AudDecoderDS
{64697678-0000-0010-8000-00AA00389B71}, Mpeg4s Decoder DMO, CLSID_CMpeg4sDecMediaObject
WMMEDIASUBTYPE_MP3, MP3 Decoder DMO, CLSID_CMP3DecMediaObject
MEDIASUBTYPE_mp42, Mpeg4 Decoder DMO, CLSID_CMpeg4DecMediaObject
MEDIASUBTYPE_MSS1, WMV Screen decoder DMO, CLSID_CMSSCDecMediaObject
MEDIASUBTYPE_WVP2, WMVideo Decoder DMO, CLSID_CWMVDecMediaObject
MEDIASUBTYPE_WMV1, WMVideo Decoder DMO, CLSID_CWMVDecMediaObject
MEDIASUBTYPE_WMVP, WMVideo Decoder DMO, CLSID_CWMVDecMediaObject
MEDIASUBTYPE_WMV3, WMVideo Decoder DMO, CLSID_CWMVDecMediaObject
MEDIASUBTYPE_WMVR, WMVideo Decoder DMO, CLSID_CWMVDecMediaObject
MEDIASUBTYPE_MJPG, MJPEG Decompressor, CLSID_MjpegDec
MEDIASUBTYPE_mp43, Mpeg43 Decoder DMO, CLSID_CMpeg43DecMediaObject
MEDIASUBTYPE_MSS2, WMV Screen decoder DMO, CLSID_CMSSCDecMediaObject
{64737664-0000-0010-8000-00AA00389B71}, DV Video Decoder, CLSID_DVVideoCodec
WMMEDIASUBTYPE_WMAudioV8, WMAudio Decoder DMO, CLSID_CWMADecMediaObject
{44495658-0000-0010-8000-00AA00389B71}, Mpeg4s Decoder DMO, CLSID_CMpeg4sDecMediaObject
WMMEDIASUBTYPE_WMSP1, WMSpeech Decoder DMO, CLSID_CWMSPDecMediaObject
MEDIASUBTYPE_RAW_AAC1, Microsoft DTV-DVD Audio Decoder, CLSID_CMPEG2AudDecoderDS
{6C737664-0000-0010-8000-00AA00389B71}, DV Video Decoder, CLSID_DVVideoCodec
MEDIASUBTYPE_MP43, Mpeg43 Decoder DMO, CLSID_CMpeg43DecMediaObject
MEDIASUBTYPE_MPEG1Payload, MPEG Video Decoder, CLSID_CMpegVideoCodec
MEDIASUBTYPE_AVC1, Microsoft DTV-DVD Video Decoder, CLSID_CMPEG2VidDecoderDS
{20637664-0000-0010-8000-00AA00389B71}, DV Video Decoder, CLSID_DVVideoCodec
{58564944-0000-0010-8000-00AA00389B71}, Mpeg4s Decoder DMO, CLSID_CMpeg4sDecMediaObject
MEDIASUBTYPE_MP42, Mpeg4 Decoder DMO, CLSID_CMpeg4DecMediaObject
MEDIASUBTYPE_MPEG_ADTS_AAC, Microsoft DTV-DVD Audio Decoder, CLSID_CMPEG2AudDecoderDS
MEDIASUBTYPE_mpg4, Mpeg4 Decoder DMO, CLSID_CMpeg4DecMediaObject
MEDIASUBTYPE_M4S2, Mpeg4s Decoder DMO, CLSID_CMpeg4sDecMediaObject
MEDIASUBTYPE_m4s2, Mpeg4s Decoder DMO, CLSID_CMpeg4sDecMediaObject
MEDIASUBTYPE_MP4S, Mpeg4s Decoder DMO, CLSID_CMpeg4sDecMediaObject
MEDIASUBTYPE_mp4s, Mpeg4s Decoder DMO, CLSID_CMpeg4sDecMediaObject
MEDIASUBTYPE_MPEG1Packet, MPEG Video Decoder, CLSID_CMpegVideoCodec
{5634504D-0000-0010-8000-00AA00389B71}, Mpeg4s Decoder DMO, CLSID_CMpeg4sDecMediaObject
{7634706D-0000-0010-8000-00AA00389B71}, Mpeg4s Decoder DMO, CLSID_CMpeg4sDecMediaObject
MEDIASUBTYPE_H264, Microsoft DTV-DVD Video Decoder, CLSID_CMPEG2VidDecoderDS
MEDIASUBTYPE_MPEG2_VIDEO, Microsoft DTV-DVD Video Decoder, CLSID_CMPEG2VidDecoderDS
MEDIASUBTYPE_WMVA, WMVideo Decoder DMO, CLSID_CWMVDecMediaObject
MEDIASUBTYPE_MSAUDIO1, WMAudio Decoder DMO, CLSID_CWMADecMediaObject
MEDIASUBTYPE_DVD_LPCM_AUDIO, Microsoft DTV-DVD Audio Decoder, CLSID_CMPEG2AudDecoderDS
MEDIASUBTYPE_MPEG_LOAS, Microsoft DTV-DVD Audio Decoder, CLSID_CMPEG2AudDecoderDS


---------------------------
Media Foundation Transforms
---------------------------

[HKEY_LOCAL_MACHINE\Software\Classes\MediaFoundation\Transforms]

<category>:
  <transform friendly name>, <transform CLSID>, <flags>, [<merit>, ]<file name>, <file version>

Video Decoders:
  Microsoft MPEG Video Decoder MFT, {2D709E52-123F-49B5-9CBC-9AF5CDE28FB9}, 0x1, msmpeg2vdec.dll, 12.00.9600.17374
  DV Decoder MFT, {404A6DE5-D4D6-4260-9BC7-5A6CBD882432}, 0x1, mfdvdec.dll, 6.03.9600.17415
  Mpeg4s Decoder MFT, CLSID_CMpeg4sDecMFT, 0x1, mp4sdecd.dll, 6.03.9600.17415
  Microsoft H264 Video Decoder MFT, CLSID_CMSH264DecoderMFT, 0x1, msmpeg2vdec.dll, 12.00.9600.17374
  WMV Screen decoder MFT, CLSID_CMSSCDecMediaObject, 0x1, wmvsdecd.dll, 6.03.9600.17415
  WMVideo Decoder MFT, CLSID_CWMVDecMediaObject, 0x1, wmvdecod.dll, 6.03.9600.17415
  MJPEG Decoder MFT, {CB17E772-E1CC-4633-8450-5617AF577905}, 0x1, mfmjpegdec.dll, 6.03.9600.17415
  Mpeg43 Decoder MFT, CLSID_CMpeg43DecMediaObject, 0x1, mp43decd.dll, 6.03.9600.17415
  Mpeg4 Decoder MFT, CLSID_CMpeg4DecMediaObject, 0x1, mpg4decd.dll, 6.03.9600.17415
Video Encoders:
  H264 Encoder MFT, {6CA50344-051A-4DED-9779-A43305165E35}, 0x1, mfh264enc.dll, 6.03.9600.17415
  WMVideo8 Encoder MFT, CLSID_CWMVXEncMediaObject, 0x1, wmvxencd.dll, 6.03.9600.17415
  WMVideo9 Encoder MFT, CLSID_CWMV9EncMediaObject, 0x1, wmvencod.dll, 6.03.9600.17415
  Microsoft MPEG-2 Video Encoder MFT, {E6335F02-80B7-4DC4-ADFA-DFE7210D20D5}, 0x2, msmpeg2enc.dll, 12.00.9600.17415
Video Effects:
  Frame Rate Converter, CLSID_CFrameRateConvertDmo, 0x1, mfvdsp.dll, 6.03.9600.17415
  Resizer MFT, CLSID_CResizerDMO, 0x1, vidreszr.dll, 6.03.9600.17415
  VideoStabilization MFT, {51571744-7FE4-4FF2-A498-2DC34FF74F1B}, 0x1, MSVideoDSP.dll, 6.03.9600.17415
  Color Control, CLSID_CColorControlDmo, 0x1, mfvdsp.dll, 6.03.9600.17415
  Color Converter MFT, CLSID_CColorConvertDMO, 0x1, colorcnv.dll, 6.03.9600.17415
Video Processor:
  Microsoft Video Processor MFT, {88753B26-5B24-49BD-B2E7-0C445C78C982}, 0x1, msvproc.dll, 12.00.9600.17415
Audio Decoders:
  Microsoft Dolby Digital Plus Decoder MFT, {177C0AFE-900B-48D4-9E4C-57ADD250B3D4}, 0x1, MSAudDecMFT.dll, 6.03.9600.17415
  WMAudio Decoder MFT, CLSID_CWMADecMediaObject, 0x1, WMADMOD.DLL, 6.03.9600.17415
  Microsoft AAC Audio Decoder MFT, CLSID_CMSAACDecMFT, 0x1, MSAudDecMFT.dll, 6.03.9600.17415
  A-law Wrapper MFT, {36CB6E0C-78C1-42B2-9943-846262F31786}, 0x1, mfcore.dll, 12.00.9600.17415
  GSM ACM Wrapper MFT, {4A76B469-7B66-4DD4-BA2D-DDF244C766DC}, 0x1, mfcore.dll, 12.00.9600.17415
  WMAPro over S/PDIF MFT, CLSID_CWMAudioSpdTxDMO, 0x1, WMADMOD.DLL, 6.03.9600.17415
  Microsoft MPEG Audio Decoder MFT, {70707B39-B2CA-4015-ABEA-F8447D22D88B}, 0x1, MSAudDecMFT.dll, 6.03.9600.17415
  WMSpeech Decoder DMO, CLSID_CWMSPDecMediaObject, 0x1, WMSPDMOD.DLL, 6.03.9600.17415
  G711 Wrapper MFT, {92B66080-5E2D-449E-90C4-C41F268E5514}, 0x1, mfcore.dll, 12.00.9600.17415
  IMA ADPCM ACM Wrapper MFT, {A16E1BFF-A80D-48AD-AECD-A35C005685FE}, 0x1, mfcore.dll, 12.00.9600.17415
  MP3 Decoder MFT, CLSID_CMP3DecMediaObject, 0x1, mp3dmod.dll, 6.03.9600.17415
  ADPCM ACM Wrapper MFT, {CA34FE0A-5722-43AD-AF23-05F7650257DD}, 0x1, mfcore.dll, 12.00.9600.17415
Audio Encoders:
  MP3 Encoder ACM Wrapper MFT, {11103421-354C-4CCA-A7A3-1AFF9A5B6701}, 0x1, mfcore.dll, 12.00.9600.17415
  WM Speech Encoder DMO, CLSID_CWMSPEncMediaObject2, 0x1, WMSPDMOE.DLL, 6.03.9600.17415
  Microsoft MPEG-2 Audio Encoder MFT, {46A4DD5C-73F8-4304-94DF-308F760974F4}, 0x1, msmpeg2enc.dll, 12.00.9600.17415
  WMAudio Encoder MFT, CLSID_CWMAEncMediaObject, 0x1, WMADMOE.DLL, 6.03.9600.17415
  Microsoft AAC Audio Encoder MFT, {93AF0C51-2275-45D2-A35B-F2BA21CAED00}, 0x1, mfAACEnc.dll, 6.03.9600.17415
  Microsoft Dolby Digital Encoder MFT, {AC3315C9-F481-45D7-826C-0B406C1F64B8}, 0x1, msac3enc.dll, 6.03.9600.17415
Audio Effects:
  AEC, CLSID_CWMAudioAEC, 0x1, mfwmaaec.dll, 6.03.9600.17415
  Resampler MFT, CLSID_CResamplerMediaObject, 0x1, resampledmo.dll, 6.03.9600.17415
Multiplexers:
  Microsoft MPEG2 Multiplexer MFT, {AB300F71-01AB-46D2-AB6C-64906CB03258}, 0x2, mfmpeg2srcsnk.dll, 12.00.9600.17415
Others:
  Microsoft H264 Video Remux (MPEG2TSToMP4) MFT, {05A47EBB-8BF0-4CBF-AD2F-3B71D75866F5}, 0x1, msmpeg2vdec.dll, 12.00.9600.17374


--------------------------------------------
Media Foundation Enabled Hardware Categories
--------------------------------------------

[HKEY_LOCAL_MACHINE\Software\Microsoft\Windows Media Foundation\HardwareMFT]

EnableDecoders = 0
EnableEncoders = 1
EnableVideoProcessors = 1


-------------------------------------
Media Foundation Byte Stream Handlers
-------------------------------------

[HKEY_LOCAL_MACHINE\Software\Microsoft\Windows Media Foundation\ByteStreamHandlers]
[HKEY_LOCAL_MACHINE\Software\Classes\MediaFoundation\MediaSources\Preferred]

<file ext. or MIME type>, <handler CLSID>, <brief description>[, Preferred]

.3g2, {271C3902-6095-4C45-A22F-20091816EE9E}, MPEG4 Byte Stream Handler, Preferred
.3gp, {271C3902-6095-4C45-A22F-20091816EE9E}, MPEG4 Byte Stream Handler, Preferred
.3gp2, {271C3902-6095-4C45-A22F-20091816EE9E}, MPEG4 Byte Stream Handler, Preferred
.3gpp, {271C3902-6095-4C45-A22F-20091816EE9E}, MPEG4 Byte Stream Handler, Preferred
.aac, {926F41F7-003E-4382-9E84-9E953BE10562}, ADTS Byte Stream Handler, Preferred
.ac3, {46031BA1-083F-47D9-8369-23C92BDAB2FF}, AC-3 Byte Stream Handler, Preferred
.adt, {926F41F7-003E-4382-9E84-9E953BE10562}, ADTS Byte Stream Handler, Preferred
.adts, {926F41F7-003E-4382-9E84-9E953BE10562}, ADTS Byte Stream Handler, Preferred
.asf, {41457294-644C-4298-A28A-BD69F2C0CF3B}, ASF Byte Stream Handler, Preferred
.avi, {7AFA253E-F823-42F6-A5D9-714BDE467412}, AVI Byte Stream Handler, Preferred
.dvr-ms, {65964407-A5D8-4060-85B0-1CCD63F768E2}, dvr-ms Byte Stream Handler, Preferred
.dvr-ms, {A8721937-E2FB-4D7A-A9EE-4EB08C890B6E}, MF SBE Source ByteStreamHandler
.ec3, {46031BA1-083F-47D9-8369-23C92BDAB2FF}, AC-3 Byte Stream Handler, Preferred
.m2t, {40871C59-AB40-471F-8DC3-1F259D862479}, MPEG2 Byte Stream Handler, Preferred
.m2ts, {40871C59-AB40-471F-8DC3-1F259D862479}, MPEG2 Byte Stream Handler, Preferred
.m4a, {271C3902-6095-4C45-A22F-20091816EE9E}, MPEG4 Byte Stream Handler, Preferred
.m4v, {271C3902-6095-4C45-A22F-20091816EE9E}, MPEG4 Byte Stream Handler, Preferred
.mod, {40871C59-AB40-471F-8DC3-1F259D862479}, MPEG2 Byte Stream Handler, Preferred
.mov, {271C3902-6095-4C45-A22F-20091816EE9E}, MPEG4 Byte Stream Handler, Preferred
.mp2v, {40871C59-AB40-471F-8DC3-1F259D862479}, MPEG2 Byte Stream Handler, Preferred
.mp3, {A82E50BA-8E92-41EB-9DF2-433F50EC2993}, MP3 Byte Stream Handler, Preferred
.mp4, {271C3902-6095-4C45-A22F-20091816EE9E}, MPEG4 Byte Stream Handler, Preferred
.mp4v, {271C3902-6095-4C45-A22F-20091816EE9E}, MPEG4 Byte Stream Handler, Preferred
.mpa, {A82E50BA-8E92-41EB-9DF2-433F50EC2993}, MP3 Byte Stream Handler, Preferred
.mpeg, {40871C59-AB40-471F-8DC3-1F259D862479}, MPEG2 Byte Stream Handler, Preferred
.mpg, {40871C59-AB40-471F-8DC3-1F259D862479}, MPEG2 Byte Stream Handler, Preferred
.mts, {40871C59-AB40-471F-8DC3-1F259D862479}, MPEG2 Byte Stream Handler, Preferred
.nsc, {B084785C-DDE0-4D30-8CA8-05A373E185BE}, NSC Byte Stream Handler, Preferred
.sami, {7A56C4CB-D678-4188-85A8-BA2EF68FA10D}, SAMI Byte Stream Handler, Preferred
.smi, {7A56C4CB-D678-4188-85A8-BA2EF68FA10D}, SAMI Byte Stream Handler, Preferred
.tod, {40871C59-AB40-471F-8DC3-1F259D862479}, MPEG2 Byte Stream Handler, Preferred
.ts, {40871C59-AB40-471F-8DC3-1F259D862479}, MPEG2 Byte Stream Handler, Preferred
.tts, {40871C59-AB40-471F-8DC3-1F259D862479}, MPEG2 Byte Stream Handler, Preferred
.uvu, {271C3902-6095-4C45-A22F-20091816EE9E}, MPEG4 Byte Stream Handler, Preferred
.vob, {40871C59-AB40-471F-8DC3-1F259D862479}, MPEG2 Byte Stream Handler, Preferred
.wav, {42C9B9F5-16FC-47EF-AF22-DA05F7C842E3}, WAV Byte Stream Handler, Preferred
.wm, {41457294-644C-4298-A28A-BD69F2C0CF3B}, ASF Byte Stream Handler, Preferred
.wma, {41457294-644C-4298-A28A-BD69F2C0CF3B}, ASF Byte Stream Handler, Preferred
.wmv, {41457294-644C-4298-A28A-BD69F2C0CF3B}, ASF Byte Stream Handler, Preferred
.wtv, {65964407-A5D8-4060-85B0-1CCD63F768E2}, WTV Byte Stream Handler, Preferred
audio/3gpp, {271C3902-6095-4C45-A22F-20091816EE9E}, MPEG4 Byte Stream Handler, Preferred
audio/3gpp2, {271C3902-6095-4C45-A22F-20091816EE9E}, MPEG4 Byte Stream Handler, Preferred
audio/aac, {926F41F7-003E-4382-9E84-9E953BE10562}, ADTS Byte Stream Handler, Preferred
audio/aacp, {926F41F7-003E-4382-9E84-9E953BE10562}, ADTS Byte Stream Handler, Preferred
audio/eac3, {46031BA1-083F-47D9-8369-23C92BDAB2FF}, AC-3 Byte Stream Handler, Preferred
audio/L16, {3FFB3B8C-EB99-472B-8902-E1C1B05F07CF}, LPCM Byte Stream Handler, Preferred
audio/mp3, {A82E50BA-8E92-41EB-9DF2-433F50EC2993}, MP3 Byte Stream Handler, Preferred
audio/mp4, {271C3902-6095-4C45-A22F-20091816EE9E}, MPEG4 Byte Stream Handler, Preferred
audio/mpa, {A82E50BA-8E92-41EB-9DF2-433F50EC2993}, MP3 Byte Stream Handler, Preferred
audio/mpeg, {A82E50BA-8E92-41EB-9DF2-433F50EC2993}, MP3 Byte Stream Handler, Preferred
audio/mpeg3, {A82E50BA-8E92-41EB-9DF2-433F50EC2993}, MP3 Byte Stream Handler, Preferred
audio/vnd.dlna.adts, {926F41F7-003E-4382-9E84-9E953BE10562}, ADTS Byte Stream Handler, Preferred
audio/vnd.dolby.dd-raw, {46031BA1-083F-47D9-8369-23C92BDAB2FF}, AC-3 Byte Stream Handler, Preferred
audio/wav, {42C9B9F5-16FC-47EF-AF22-DA05F7C842E3}, WAV Byte Stream Handler, Preferred
audio/x-aac, {926F41F7-003E-4382-9E84-9E953BE10562}, ADTS Byte Stream Handler, Preferred
audio/x-m4a, {271C3902-6095-4C45-A22F-20091816EE9E}, MPEG4 Byte Stream Handler, Preferred
audio/x-mp3, {A82E50BA-8E92-41EB-9DF2-433F50EC2993}, MP3 Byte Stream Handler, Preferred
audio/x-mpeg, {A82E50BA-8E92-41EB-9DF2-433F50EC2993}, MP3 Byte Stream Handler, Preferred
audio/x-ms-wma, {41457294-644C-4298-A28A-BD69F2C0CF3B}, ASF Byte Stream Handler, Preferred
audio/x-wav, {42C9B9F5-16FC-47EF-AF22-DA05F7C842E3}, WAV Byte Stream Handler, Preferred
video/3gpp, {271C3902-6095-4C45-A22F-20091816EE9E}, MPEG4 Byte Stream Handler, Preferred
video/3gpp2, {271C3902-6095-4C45-A22F-20091816EE9E}, MPEG4 Byte Stream Handler, Preferred
video/avi, {7AFA253E-F823-42F6-A5D9-714BDE467412}, AVI Byte Stream Handler, Preferred
video/mp4, {271C3902-6095-4C45-A22F-20091816EE9E}, MPEG4 Byte Stream Handler, Preferred
video/mpeg, {40871C59-AB40-471F-8DC3-1F259D862479}, MPEG2 Byte Stream Handler, Preferred
video/msvideo, {7AFA253E-F823-42F6-A5D9-714BDE467412}, AVI Byte Stream Handler, Preferred
video/vnd.dece.mp4, {271C3902-6095-4C45-A22F-20091816EE9E}, MPEG4 Byte Stream Handler, Preferred
video/vnd.dlna.mpeg-tts, {40871C59-AB40-471F-8DC3-1F259D862479}, MPEG2 Byte Stream Handler, Preferred
video/x-m4v, {271C3902-6095-4C45-A22F-20091816EE9E}, MPEG4 Byte Stream Handler, Preferred
video/x-ms-asf, {41457294-644C-4298-A28A-BD69F2C0CF3B}, ASF Byte Stream Handler, Preferred
video/x-ms-wm, {41457294-644C-4298-A28A-BD69F2C0CF3B}, ASF Byte Stream Handler, Preferred
video/x-ms-wmv, {41457294-644C-4298-A28A-BD69F2C0CF3B}, ASF Byte Stream Handler, Preferred
video/x-msvideo, {7AFA253E-F823-42F6-A5D9-714BDE467412}, AVI Byte Stream Handler, Preferred


--------------------------------
Media Foundation Scheme Handlers
--------------------------------

[HKEY_LOCAL_MACHINE\Software\Microsoft\Windows Media Foundation\SchemeHandlers]
[HKEY_LOCAL_MACHINE\Software\Classes\MediaFoundation\MediaSources\Preferred]

<URL type>, <handler CLSID>, <brief description>[, Preferred]

file:, {477EC299-1421-4BDD-971F-7CCB933F21AD}, File Scheme Handler, Preferred
http:, {44CB442B-9DA9-49DF-B3FD-023777B16E50}, Http Scheme Handler
http:, {9EC4B4F9-3029-45AD-947B-344DE2A249E2}, Urlmon Scheme Handler
http:, {E9F4EBAB-D97B-463E-A2B1-C54EE3F9414D}, Net Scheme Handler, Preferred
httpd:, {44CB442B-9DA9-49DF-B3FD-023777B16E50}, Http Scheme Handler, Preferred
httpnd:, {2EEEED04-0908-4CDB-AF8F-AC5B768A34C9}, Drm Scheme Handler, Preferred
https:, {37A61C8B-7F8E-4D08-B12B-248D73E9AB4F}, Secure Http Scheme Handler, Preferred
httpsd:, {37A61C8B-7F8E-4D08-B12B-248D73E9AB4F}, Secure Http Scheme Handler, Preferred
httpt:, {E9F4EBAB-D97B-463E-A2B1-C54EE3F9414D}, Net Scheme Handler, Preferred
httpu:, {E9F4EBAB-D97B-463E-A2B1-C54EE3F9414D}, Net Scheme Handler, Preferred
mcast:, {E9F4EBAB-D97B-463E-A2B1-C54EE3F9414D}, Net Scheme Handler, Preferred
mms:, {E9F4EBAB-D97B-463E-A2B1-C54EE3F9414D}, Net Scheme Handler, Preferred
ms-appdata:, {CFC81939-3886-4ACF-9692-DA58037AE716}, MsAppData Scheme Handler, Preferred
ms-appx-web:, {8DB0224B-3D65-4F6F-8E12-BEB4B78B8974}, MsAppxWeb Scheme Handler, Preferred
ms-appx:, {8DB0224B-3D65-4F6F-8E12-BEB4B78B8974}, MsAppx Scheme Handler, Preferred
ms-winsoundevent:, {F79A6BF9-7415-4CF3-AE10-4559509ABC3C}, Sound Event Scheme Handler, Preferred
rtsp:, {E9F4EBAB-D97B-463E-A2B1-C54EE3F9414D}, Net Scheme Handler, Preferred
rtspt:, {E9F4EBAB-D97B-463E-A2B1-C54EE3F9414D}, Net Scheme Handler, Preferred
rtspu:, {E9F4EBAB-D97B-463E-A2B1-C54EE3F9414D}, Net Scheme Handler, Preferred
sdp:, {E9F4EBAB-D97B-463E-A2B1-C54EE3F9414D}, Net Scheme Handler, Preferred


-------------------------------------
Preferred Media Foundation Transforms
-------------------------------------

[HKEY_LOCAL_MACHINE\Software\Classes\MediaFoundation\Transforms\Preferred]

<media subtype GUID>, [<transform friendly name>, ]<transform CLSID>

MFAudioFormat_AAC, Microsoft AAC Audio Decoder MFT, CLSID_CMSAACDecMFT
MFAudioFormat_WMAudio_Lossless, WMAudio Decoder MFT, CLSID_CWMADecMediaObject
MEDIASUBTYPE_MPG4, Mpeg4 Decoder MFT, CLSID_CMpeg4DecMediaObject
WMMEDIASUBTYPE_WMSP2, WMSpeech Decoder DMO, CLSID_CWMSPDecMediaObject
{3F40F4F0-5622-4FF8-B6D8-A17A584BEE5E}, Microsoft H264 Video Decoder MFT, CLSID_CMSH264DecoderMFT
MFVideoFormat_WVC1, WMVideo Decoder MFT, CLSID_CWMVDecMediaObject
KSDATAFORMAT_SUBTYPE_ADPCM, ADPCM ACM Wrapper MFT, {CA34FE0A-5722-43AD-AF23-05F7650257DD}
MFVideoFormat_DVHD, DV Decoder MFT, {404A6DE5-D4D6-4260-9BC7-5A6CBD882432}
MFAudioFormat_MPEG, Microsoft MPEG Audio Decoder MFT, {70707B39-B2CA-4015-ABEA-F8447D22D88B}
{00002000-0000-0010-8000-00AA00389B71}, Microsoft Dolby Digital Plus Decoder MFT, {177C0AFE-900B-48D4-9E4C-57ADD250B3D4}
MFAudioFormat_WMAudioV9, WMAudio Decoder MFT, CLSID_CWMADecMediaObject
MFVideoFormat_WMV2, WMVideo Decoder MFT, CLSID_CWMVDecMediaObject
MEDIASUBTYPE_DOLBY_DDPLUS, Microsoft Dolby Digital Plus Decoder MFT, {177C0AFE-900B-48D4-9E4C-57ADD250B3D4}
{53314356-0000-0010-8000-00AA00389B71}, WMVideo Decoder MFT, CLSID_CWMVDecMediaObject
MFAudioFormat_MP3, MP3 Decoder MFT, CLSID_CMP3DecMediaObject
MEDIASUBTYPE_mp42, Mpeg4 Decoder MFT, CLSID_CMpeg4DecMediaObject
MFVideoFormat_MSS1, WMV Screen decoder MFT, CLSID_CMSSCDecMediaObject
MEDIASUBTYPE_WVP2, WMVideo Decoder MFT, CLSID_CWMVDecMediaObject
MFVideoFormat_WMV1, WMVideo Decoder MFT, CLSID_CWMVDecMediaObject
MEDIASUBTYPE_WMVP, WMVideo Decoder MFT, CLSID_CWMVDecMediaObject
MFVideoFormat_WMV3, WMVideo Decoder MFT, CLSID_CWMVDecMediaObject
MEDIASUBTYPE_WMVR, WMVideo Decoder MFT, CLSID_CWMVDecMediaObject
KSDATAFORMAT_SUBTYPE_MULAW, G711 Wrapper MFT, {92B66080-5E2D-449E-90C4-C41F268E5514}
MFVideoFormat_MJPG, MJPEG Decoder MFT, {CB17E772-E1CC-4633-8450-5617AF577905}
MEDIASUBTYPE_mp43, Mpeg43 Decoder MFT, CLSID_CMpeg43DecMediaObject
{00000031-0000-0010-8000-00AA00389B71}, GSM ACM Wrapper MFT, {4A76B469-7B66-4DD4-BA2D-DDF244C766DC}
MFVideoFormat_DVSD, DV Decoder MFT, {404A6DE5-D4D6-4260-9BC7-5A6CBD882432}
MFVideoFormat_MSS2, WMV Screen decoder MFT, CLSID_CMSSCDecMediaObject
MFAudioFormat_WMAudioV8, WMAudio Decoder MFT, CLSID_CWMADecMediaObject
MFAudioFormat_MSP1, WMSpeech Decoder DMO, CLSID_CWMSPDecMediaObject
MEDIASUBTYPE_RAW_AAC1, Microsoft AAC Audio Decoder MFT, CLSID_CMSAACDecMFT
MFVideoFormat_DVSL, DV Decoder MFT, {404A6DE5-D4D6-4260-9BC7-5A6CBD882432}
MFVideoFormat_MP43, Mpeg43 Decoder MFT, CLSID_CMpeg43DecMediaObject
MFVideoFormat_DVC, DV Decoder MFT, {404A6DE5-D4D6-4260-9BC7-5A6CBD882432}
{00000011-0000-0010-8000-00AA00389B71}, IMA ADPCM ACM Wrapper MFT, {A16E1BFF-A80D-48AD-AECD-A35C005685FE}
MEDIASUBTYPE_MP42, Mpeg4 Decoder MFT, CLSID_CMpeg4DecMediaObject
{00000006-0000-0010-8000-00AA00389B71}, A-law Wrapper MFT, {36CB6E0C-78C1-42B2-9943-846262F31786}
MEDIASUBTYPE_mpg4, Mpeg4 Decoder MFT, CLSID_CMpeg4DecMediaObject
MFVideoFormat_M4S2, Mpeg4s Decoder MFT, CLSID_CMpeg4sDecMFT
MEDIASUBTYPE_m4s2, Mpeg4s Decoder MFT, CLSID_CMpeg4sDecMFT
MFVideoFormat_MP4S, Mpeg4s Decoder MFT, CLSID_CMpeg4sDecMFT
MEDIASUBTYPE_mp4s, Mpeg4s Decoder MFT, CLSID_CMpeg4sDecMFT
{33363248-0000-0010-8000-00AA00389B71}, Mpeg4s Decoder MFT, CLSID_CMpeg4sDecMFT
{E06D802C-DB46-11CF-B4D1-00805F6CBBEA}, Microsoft Dolby Digital Plus Decoder MFT, {177C0AFE-900B-48D4-9E4C-57ADD250B3D4}
MFVideoFormat_MP4V, Mpeg4s Decoder MFT, CLSID_CMpeg4sDecMFT
{7634706D-0000-0010-8000-00AA00389B71}, Mpeg4s Decoder MFT, CLSID_CMpeg4sDecMFT
MFVideoFormat_H264, Microsoft H264 Video Decoder MFT, CLSID_CMSH264DecoderMFT
MFVideoFormat_MPEG2, Microsoft MPEG Video Decoder MFT, {2D709E52-123F-49B5-9CBC-9AF5CDE28FB9}
MFVideoFormat_MPG1, Microsoft MPEG Video Decoder MFT, {2D709E52-123F-49B5-9CBC-9AF5CDE28FB9}
MEDIASUBTYPE_WMVA, WMVideo Decoder MFT, CLSID_CWMVDecMediaObject
MEDIASUBTYPE_MSAUDIO1, WMAudio Decoder MFT, CLSID_CWMADecMediaObject


-------------------------------------
Disabled Media Foundation Transforms
-------------------------------------

[HKEY_LOCAL_MACHINE\Software\Classes\MediaFoundation\Transforms\DoNotUse]

<transform CLSID>



------------------------
Disabled Media Sources
------------------------

[HKEY_LOCAL_MACHINE\Software\Classes\MediaFoundation\MediaSources\DoNotUse]

<media source CLSID>


---------------
EVR Power Information
---------------
Current Setting: {5C67A112-A4C9-483F-B4A7-1D473BECAFDC} (Quality) 
  Quality Flags: 2576
    Enabled:
    Force throttling
    Allow half deinterlace
    Allow scaling
    Decode Power Usage: 100
  Balanced Flags: 1424
    Enabled:
    Force throttling
    Allow batching
    Force half deinterlace
    Force scaling
    Decode Power Usage: 50
  PowerFlags: 1424
    Enabled:
    Force throttling
    Allow batching
    Force half deinterlace
    Force scaling
    Decode Power Usage: 0

---------------
Diagnostics
---------------

Windows Error Reporting:
+++ WER0 +++:
Fault bucket 90610137722, type 5
Event Name: PDUWICA
Response: Not available
Cab Id: 0

Problem signature:
P1: 48
P2: 1.6
P3: 6.3.0.0
P4: 1033
P5: 67
P6: 
P7: 
P8: 
P9: 
P10: 


+++ WER1 +++:
Fault bucket 90610137722, type 5
Event Name: PDUWICA
Response: Not available
Cab Id: 0

Problem signature:
P1: 48
P2: 1.6
P3: 6.3.0.0
P4: 1033
P5: 67
P6: 
P7: 
P8: 
P9: 
P10: 


+++ WER2 +++:
Fault bucket 90610137722, type 5
Event Name: PDUWICA
Response: Not available
Cab Id: 0

Problem signature:
P1: 48
P2: 1.6
P3: 6.3.0.0
P4: 1033
P5: 67
P6: 
P7: 
P8: 
P9: 
P10: 


+++ WER3 +++:
Fault bucket 90610137722, type 5
Event Name: PDUWICA
Response: Not available
Cab Id: 0

Problem signature:
P1: 48
P2: 1.6
P3: 6.3.0.0
P4: 1033
P5: 67
P6: 
P7: 
P8: 
P9: 
P10: 


+++ WER4 +++:
Fault bucket 90610137722, type 5
Event Name: PDUWICA
Response: Not available
Cab Id: 0

Problem signature:
P1: 48
P2: 1.6
P3: 6.3.0.0
P4: 1033
P5: 67
P6: 
P7: 
P8: 
P9: 
P10: 


+++ WER5 +++:
Fault bucket 90610137722, type 5
Event Name: PDUWICA
Response: Not available
Cab Id: 0

Problem signature:
P1: 48
P2: 1.6
P3: 6.3.0.0
P4: 1033
P5: 67
P6: 
P7: 
P8: 
P9: 
P10: 


+++ WER6 +++:
Fault bucket 90610137722, type 5
Event Name: PDUWICA
Response: Not available
Cab Id: 0

Problem signature:
P1: 48
P2: 1.6
P3: 6.3.0.0
P4: 1033
P5: 67
P6: 
P7: 
P8: 
P9: 
P10: 


+++ WER7 +++:
Fault bucket 90610137722, type 5
Event Name: PDUWICA
Response: Not available
Cab Id: 0

Problem signature:
P1: 48
P2: 1.6
P3: 6.3.0.0
P4: 1033
P5: 67
P6: 
P7: 
P8: 
P9: 
P10: 


+++ WER8 +++:
Fault bucket -204726991, type 5
Event Name: PnPDriverNotFound
Response: Not available
Cab Id: 0

Problem signature:
P1: x64
P2: HDAUDIO\FUNC_01&VEN_10EC&DEV_0900&SUBSYS_10438602&REV_1000
P3: 
P4: 
P5: 
P6: 
P7: 
P8: 
P9: 
P10: 


+++ WER9 +++:
Fault bucket , type 0
Event Name: PnPDriverNotFound
Response: Not available
Cab Id: 0

Problem signature:
P1: x64
P2: HDAUDIO\FUNC_01&VEN_10EC&DEV_0900&SUBSYS_10438602&REV_1000
P3: 
P4: 
P5: 
P6: 
P7: 
P8: 
P9: 
P10: 


